<svg width="31" height="30" viewBox="0 0 31 30" fill="none" xmlns="http://www.w3.org/2000/svg">
<path fill-rule="evenodd" clip-rule="evenodd" d="M0.825 26.175C0.961247 26.2244 1.10506 26.2498 1.25 26.25C1.61539 26.25 1.9625 26.0902 2.2 25.8125L3.1875 24.65C6.7939 20.4277 11.9581 17.8478 17.5 17.5V21.25C17.5014 21.7308 17.7784 22.1682 18.2125 22.375C18.6462 22.5844 19.1616 22.5261 19.5375 22.225L29.5375 14.1C29.8332 13.8627 30.0053 13.5041 30.0053 13.125C30.0053 12.7459 29.8332 12.3872 29.5375 12.15L19.5375 4.02499C19.1616 3.72392 18.6462 3.66557 18.2125 3.87499C17.7784 4.08175 17.5014 4.51917 17.5 4.99999V8.74999H16.25C7.27537 8.74999 0 16.0254 0 25C0.000223919 25.5263 0.330066 25.9961 0.825 26.175ZM3.03742 21.25C4.71296 15.3392 10.1063 11.2573 16.2499 11.25H18.7499C19.4403 11.25 19.9999 10.6903 19.9999 9.99999V7.62499L26.7624 13.125L19.9999 18.625V16.25C19.9999 15.5596 19.4403 15 18.7499 15C12.909 15.0138 7.29196 17.2481 3.03742 21.25Z" fill="#FF3C3C"/>
</svg>
